<?xml version="1.0" encoding="utf-8"?>
<!-- Generator: Adobe Illustrator 23.0.1, SVG Export Plug-In . SVG Version: 6.00 Build 0)  -->
<!DOCTYPE svg PUBLIC "-//W3C//DTD SVG 1.1//EN" "http://www.w3.org/Graphics/SVG/1.1/DTD/svg11.dtd" [
	<!ENTITY ns_extend "http://ns.adobe.com/Extensibility/1.0/">
	<!ENTITY ns_ai "http://ns.adobe.com/AdobeIllustrator/10.0/">
	<!ENTITY ns_graphs "http://ns.adobe.com/Graphs/1.0/">
	<!ENTITY ns_vars "http://ns.adobe.com/Variables/1.0/">
	<!ENTITY ns_imrep "http://ns.adobe.com/ImageReplacement/1.0/">
	<!ENTITY ns_sfw "http://ns.adobe.com/SaveForWeb/1.0/">
	<!ENTITY ns_custom "http://ns.adobe.com/GenericCustomNamespace/1.0/">
	<!ENTITY ns_adobe_xpath "http://ns.adobe.com/XPath/1.0/">
]>
<svg version="1.1" id="Layer_1" xmlns:x="&ns_extend;" xmlns:i="&ns_ai;" xmlns:graph="&ns_graphs;"
	 xmlns="http://www.w3.org/2000/svg" xmlns:xlink="http://www.w3.org/1999/xlink" x="0px" y="0px" viewBox="0 0 167.3 167.2"
	 style="enable-background:new 0 0 167.3 167.2;" xml:space="preserve">
<style type="text/css">
	.st0{fill:#34313F;}
</style>
<metadata>
	<sfw  xmlns="&ns_sfw;">
		<slices></slices>
		<sliceSourceBounds  bottomLeftOrigin="true" height="167.2" width="167.3" x="222.2" y="340.8"></sliceSourceBounds>
	</sfw>
</metadata>
<g>
	<path class="st0" d="M88.1,95.2h21.1c6,0,9.8-3.3,9.8-8.6c0-5-3.8-8.6-9.8-8.6H88.1c-0.7,0-1.3,0.6-1.3,1.2V94
		C86.9,94.7,87.4,95.2,88.1,95.2z"/>
	<path class="st0" d="M88.1,129.3h21.8c6.7,0,10.7-3.4,10.7-9.4c0-5.2-3.8-9.4-10.7-9.4H88.1c-0.7,0-1.3,0.6-1.3,1.2V128
		C86.9,128.8,87.4,129.3,88.1,129.3z"/>
	<path class="st0" d="M165.3,0.4l-62.4,62.2h10.2c15.9,0,25.3,10,25.3,20.9c0,8.6-5.8,14.9-12,17.7c-1,0.4-1,1.8,0.1,2.2
		c7.2,2.8,12.3,10.3,12.3,19.1c0,12.4-8.3,22.3-24.4,22.3H70.2c-0.7,0-1.3-0.6-1.3-1.2V96.5L0.4,164.7c-0.9,0.9-0.3,2.5,1,2.5h164.7
		c0.6,0,1.1-0.5,1.1-1.1V1.3C167.5,0.2,166.1-0.4,165.3,0.4z"/>
</g>
</svg>
